1
1
-12046196
-12046196
6408276
6408276
-39265160
-39265160
-23729932
-23729932
-35942772
-35942772
2590628
2590628
-30820856
-30820856
54712564
54712564
62090088
62090088
62090088
62090088
62090088
31953728
31953728
-13553144
-13553144
10892476
10892476
10892476
10892476
-61733424
-61733424
-31134340
-31134340
-30921680
-30921680
17492452
17492452
17492452
17492452
-61829456
-61829456
